World Happiness Index
…
The World Happiness Report is a landmark survey of the state of global happiness.The World Happiness 2016, which ranks 155 countries by their happiness levels, was released at the United Nations at an event celebrating the International Day of Happiness on March 20th. The goal of this data is to study what factors policy-makers can employ to increase the happiness of their countrys population. Thanks to Kaggle, this data was provided in an easily accessible csv file.

The Happiness Index Dataset

h2016

## # A tibble: 157 x 13
##        Country                    Region Happiness_Rank Happiness_Score
##          <chr>                     <chr>          <int>           <dbl>
##  1     Denmark            Western Europe              1           7.526
##  2 Switzerland            Western Europe              2           7.509
##  3     Iceland            Western Europe              3           7.501
##  4      Norway            Western Europe              4           7.498
##  5     Finland            Western Europe              5           7.413
##  6      Canada             North America              6           7.404
##  7 Netherlands            Western Europe              7           7.339
##  8 New Zealand Australia and New Zealand              8           7.334
##  9   Australia Australia and New Zealand              9           7.313
## 10      Sweden            Western Europe             10           7.291
## # ... with 147 more rows, and 9 more variables:
## #   Lower_Confidence_Interval <dbl>, Upper_Confidence_Interval <dbl>,
## #   Economy_GDP_per_Capita <dbl>, Family <dbl>,
## #   Health_Life_Expectancy <dbl>, Freedom <dbl>,
## #   Trust_Government_Corruption <dbl>, Generosity <dbl>,
## #   Dystopia_Residual <dbl>
…
